[
    {
        "_id": "62c43c7db668eb3a02b78256",
        "name": "Ali",
        "email": "ali88@gmail.com",
        "mobileNo": "0501234567",
        "picture": "",
        "isActive": true,
        "created": "2022-07-05T13:28:29.942Z",
        "modieifed": "2022-07-05T13:28:29.942Z",
        "__v": 0
    },
    {
        "_id": "62c7438fe97d2467e8183d8d",
        "name": "Basit",
        "email": "abqamar88@gmail.com",
        "mobileNo": "0501234567",
        "picture": "",
        "isActive": false,
        "created": "2022-07-07T20:35:27.978Z",
        "modieifed": "2022-07-07T20:35:27.978Z",
        "__v": 0
    }
]